R Bootcamp Day 2: Exploring the tidyverse (with answers) | Cory K. Costello
…
We gained a little bit of familiarity with dplyr above as an intro to the tidyverse. Now, we’ll dive a little deeper and explore some of the other ways we can transform data using the grammar of data manipulation.

4.1 More on select()

Let’s review what we learned using about selecting columns. We’ll use the starwars dataset, which comes with dplyr.

4.1.1 basic selects

Recall that one easy way to select columns is to use select(), providing the data as the first argument (w/ or w/o pipes) and desired unquoted column names separated by a comma:

starwars %>% 
  select(name, homeworld)

## # A tibble: 87 x 2
##    name               homeworld
##    <chr>              <chr>    
##  1 Luke Skywalker     Tatooine 
##  2 C-3PO              Tatooine 
##  3 R2-D2              Naboo    
##  4 Darth Vader        Tatooine 
##  5 Leia Organa        Alderaan 
##  6 Owen Lars          Tatooine 
##  7 Beru Whitesun lars Tatooine 
##  8 R5-D4              Tatooine 
##  9 Biggs Darklighter  Tatooine 
## 10 Obi-Wan Kenobi     Stewjon  
## # ... with 77 more rows

4.1.2 selecting a range

Recall that we can also select a range of variables, by name. Let’s get everything from name to homeworld:

starwars %>% 
  select(name:homeworld)

## # A tibble: 87 x 9
##    name  height  mass hair_color skin_color eye_color birth_year gender
##    <chr>  <int> <dbl> <chr>      <chr>      <chr>          <dbl> <chr> 
##  1 Luke~    172    77 blond      fair       blue            19   male  
##  2 C-3PO    167    75 <NA>       gold       yellow         112   <NA>  
##  3 R2-D2     96    32 <NA>       white, bl~ red             33   <NA>  
##  4 Dart~    202   136 none       white      yellow          41.9 male  
##  5 Leia~    150    49 brown      light      brown           19   female
##  6 Owen~    178   120 brown, gr~ light      blue            52   male  
##  7 Beru~    165    75 brown      light      blue            47   female
##  8 R5-D4     97    32 <NA>       white, red red             NA   <NA>  
##  9 Bigg~    183    84 black      light      brown           24   male  
## 10 Obi-~    182    77 auburn, w~ fair       blue-gray       57   male  
## # ... with 77 more rows, and 1 more variable: homeworld <chr>

4.1.3 selecting with helper functions

The helper fucntions allow us to do even more advanced column selection. For example, we can get all of the columns that contain the string "color":

starwars %>% 
  select(contains("color"))

## # A tibble: 87 x 3
##    hair_color    skin_color  eye_color
##    <chr>         <chr>       <chr>    
##  1 blond         fair        blue     
##  2 <NA>          gold        yellow   
##  3 <NA>          white, blue red      
##  4 none          white       yellow   
##  5 brown         light       brown    
##  6 brown, grey   light       blue     
##  7 brown         light       blue     
##  8 <NA>          white, red  red      
##  9 black         light       brown    
## 10 auburn, white fair        blue-gray
## # ... with 77 more rows

4.1.4 Re-arranging columns with select

I didn’t mention this before, but we can also use select to re-arrange our columns. This is one of the main uses for the everything() helper function. Let’s re-arrange things so that homeworld comes first, followed by name, then by the remainin columns

starwars %>% 
  select(homeworld, name, everything())

## # A tibble: 87 x 13
##    homeworld name  height  mass hair_color skin_color eye_color birth_year
##    <chr>     <chr>  <int> <dbl> <chr>      <chr>      <chr>          <dbl>
##  1 Tatooine  Luke~    172    77 blond      fair       blue            19  
##  2 Tatooine  C-3PO    167    75 <NA>       gold       yellow         112  
##  3 Naboo     R2-D2     96    32 <NA>       white, bl~ red             33  
##  4 Tatooine  Dart~    202   136 none       white      yellow          41.9
##  5 Alderaan  Leia~    150    49 brown      light      brown           19  
##  6 Tatooine  Owen~    178   120 brown, gr~ light      blue            52  
##  7 Tatooine  Beru~    165    75 brown      light      blue            47  
##  8 Tatooine  R5-D4     97    32 <NA>       white, red red             NA  
##  9 Tatooine  Bigg~    183    84 black      light      brown           24  
## 10 Stewjon   Obi-~    182    77 auburn, w~ fair       blue-gray       57  
## # ... with 77 more rows, and 5 more variables: gender <chr>,
## #   species <chr>, films <list>, vehicles <list>, starships <list>

Exercise 4.1a

Re-arrange the starwars columns such that all of the columns that start with h are at the beginning, followed by the remaining columns.

starwars %>% 
  select(starts_with("h"), everything())

## # A tibble: 87 x 13
##    height hair_color homeworld name   mass skin_color eye_color birth_year
##     <int> <chr>      <chr>     <chr> <dbl> <chr>      <chr>          <dbl>
##  1    172 blond      Tatooine  Luke~    77 fair       blue            19  
##  2    167 <NA>       Tatooine  C-3PO    75 gold       yellow         112  
##  3     96 <NA>       Naboo     R2-D2    32 white, bl~ red             33  
##  4    202 none       Tatooine  Dart~   136 white      yellow          41.9
##  5    150 brown      Alderaan  Leia~    49 light      brown           19  
##  6    178 brown, gr~ Tatooine  Owen~   120 light      blue            52  
##  7    165 brown      Tatooine  Beru~    75 light      blue            47  
##  8     97 <NA>       Tatooine  R5-D4    32 white, red red             NA  
##  9    183 black      Tatooine  Bigg~    84 light      brown           24  
## 10    182 auburn, w~ Stewjon   Obi-~    77 fair       blue-gray       57  
## # ... with 77 more rows, and 5 more variables: gender <chr>,
## #   species <chr>, films <list>, vehicles <list>, starships <list>

Exercise 4.2a

Select name, species, hair_color, skin_color, and eye_color from the starwars data. Use at least one helper function.

starwars %>% 
  select(name, species, ends_with("color"))

## # A tibble: 87 x 5
##    name               species hair_color    skin_color  eye_color
##    <chr>              <chr>   <chr>         <chr>       <chr>    
##  1 Luke Skywalker     Human   blond         fair        blue     
##  2 C-3PO              Droid   <NA>          gold        yellow   
##  3 R2-D2              Droid   <NA>          white, blue red      
##  4 Darth Vader        Human   none          white       yellow   
##  5 Leia Organa        Human   brown         light       brown    
##  6 Owen Lars          Human   brown, grey   light       blue     
##  7 Beru Whitesun lars Human   brown         light       blue     
##  8 R5-D4              Droid   <NA>          white, red  red      
##  9 Biggs Darklighter  Human   black         light       brown    
## 10 Obi-Wan Kenobi     Human   auburn, white fair        blue-gray
## # ... with 77 more rows

# or

starwars %>% 
  select(name, species, contains("color"))

## # A tibble: 87 x 5
##    name               species hair_color    skin_color  eye_color
##    <chr>              <chr>   <chr>         <chr>       <chr>    
##  1 Luke Skywalker     Human   blond         fair        blue     
##  2 C-3PO              Droid   <NA>          gold        yellow   
##  3 R2-D2              Droid   <NA>          white, blue red      
##  4 Darth Vader        Human   none          white       yellow   
##  5 Leia Organa        Human   brown         light       brown    
##  6 Owen Lars          Human   brown, grey   light       blue     
##  7 Beru Whitesun lars Human   brown         light       blue     
##  8 R5-D4              Droid   <NA>          white, red  red      
##  9 Biggs Darklighter  Human   black         light       brown    
## 10 Obi-Wan Kenobi     Human   auburn, white fair        blue-gray
## # ... with 77 more rows
…
Speaking of NAs, let’s see which characters have missing mass by filtering for rows where mass is NA.

starwars %>% 
  filter(mass == NA)

It give us an empty df. What happened? NA is a special case when it comes to logical filtering. A value can’t equal NA, it is NA. This is a subtle distinction. I try to remember it by reminding myself that an unknown could be equal to anything, but it definitely is an unknown.

So, if we want to filter for NAs, we have to use is.na(), which returns TRUE if an entry is NA. Let’s try to get characters with missing mass again:

starwars %>% 
  filter(is.na(mass)) # note you wrap the variable in is.na()

## # A tibble: 28 x 13
##    name  height  mass hair_color skin_color eye_color birth_year gender
##    <chr>  <int> <dbl> <chr>      <chr>      <chr>          <dbl> <chr> 
##  1 Wilh~    180    NA auburn, g~ fair       blue              64 male  
##  2 Mon ~    150    NA auburn     fair       blue              48 female
##  3 Arve~     NA    NA brown      fair       brown             NA male  
##  4 Fini~    170    NA blond      fair       blue              91 male  
##  5 Rugo~    206    NA none       green      orange            NA male  
##  6 Ric ~    183    NA brown      fair       blue              NA male  
##  7 Watto    137    NA black      blue, grey yellow            NA male  
##  8 Quar~    183    NA black      dark       brown             62 male  
##  9 Shmi~    163    NA black      fair       brown             72 female
## 10 Bib ~    180    NA none       pale       pink              NA male  
## # ... with 18 more rows, and 5 more variables: homeworld <chr>,
## #   species <chr>, films <list>, vehicles <list>, starships <list>

To get the values that aren’t missing, you have to put a ! before is.na(), so it looks like !is.na(variable). Let’s get every observation that isn’t mising on mass:

starwars %>% 
  filter(!is.na(mass))

## # A tibble: 59 x 13
##    name  height  mass hair_color skin_color eye_color birth_year gender
##    <chr>  <int> <dbl> <chr>      <chr>      <chr>          <dbl> <chr> 
##  1 Luke~    172    77 blond      fair       blue            19   male  
##  2 C-3PO    167    75 <NA>       gold       yellow         112   <NA>  
##  3 R2-D2     96    32 <NA>       white, bl~ red             33   <NA>  
##  4 Dart~    202   136 none       white      yellow          41.9 male  
##  5 Leia~    150    49 brown      light      brown           19   female
##  6 Owen~    178   120 brown, gr~ light      blue            52   male  
##  7 Beru~    165    75 brown      light      blue            47   female
##  8 R5-D4     97    32 <NA>       white, red red             NA   <NA>  
##  9 Bigg~    183    84 black      light      brown           24   male  
## 10 Obi-~    182    77 auburn, w~ fair       blue-gray       57   male  
## # ... with 49 more rows, and 5 more variables: homeworld <chr>,
## #   species <chr>, films <list>, vehicles <list>, starships <list>
…
## # A tibble: 2 x 13
##   name  height  mass hair_color skin_color eye_color birth_year gender
##   <chr>  <int> <dbl> <chr>      <chr>      <chr>          <dbl> <chr> 
## 1 Roos~    224    82 none       grey       orange            NA male  
## 2 Lama~    229    88 none       grey       black             NA male  
## # ... with 5 more variables: homeworld <chr>, species <chr>, films <list>,
## #   vehicles <list>, starships <list>

We could get observations either 1 SD above or below the mean of height too:

  starwars %>% 
  filter(height > mean(height, na.rm = TRUE) + sd(height, na.rm = TRUE) |
         height < mean(height, na.rm = TRUE) + sd(height, na.rm = TRUE))

## # A tibble: 81 x 13
##    name  height  mass hair_color skin_color eye_color birth_year gender
##    <chr>  <int> <dbl> <chr>      <chr>      <chr>          <dbl> <chr> 
##  1 Luke~    172    77 blond      fair       blue            19   male  
##  2 C-3PO    167    75 <NA>       gold       yellow         112   <NA>  
##  3 R2-D2     96    32 <NA>       white, bl~ red             33   <NA>  
##  4 Dart~    202   136 none       white      yellow          41.9 male  
##  5 Leia~    150    49 brown      light      brown           19   female
##  6 Owen~    178   120 brown, gr~ light      blue            52   male  
##  7 Beru~    165    75 brown      light      blue            47   female
##  8 R5-D4     97    32 <NA>       white, red red             NA   <NA>  
##  9 Bigg~    183    84 black      light      brown           24   male  
## 10 Obi-~    182    77 auburn, w~ fair       blue-gray       57   male  
## # ... with 71 more rows, and 5 more variables: homeworld <chr>,
## #   species <chr>, films <list>, vehicles <list>, starships <list>
…
Or characters that don’t have brown hair:

starwars %>% 
  filter(hair_color != "brown")

## # A tibble: 64 x 13
##    name  height  mass hair_color skin_color eye_color birth_year gender
##    <chr>  <int> <dbl> <chr>      <chr>      <chr>          <dbl> <chr> 
##  1 Luke~    172  77   blond      fair       blue            19   male  
##  2 Dart~    202 136   none       white      yellow          41.9 male  
##  3 Owen~    178 120   brown, gr~ light      blue            52   male  
##  4 Bigg~    183  84   black      light      brown           24   male  
##  5 Obi-~    182  77   auburn, w~ fair       blue-gray       57   male  
##  6 Anak~    188  84   blond      fair       blue            41.9 male  
##  7 Wilh~    180  NA   auburn, g~ fair       blue            64   male  
##  8 Yoda      66  17   white      green      brown          896   male  
##  9 Palp~    170  75   grey       pale       yellow          82   male  
## 10 Boba~    183  78.2 black      fair       brown           31.5 male  
## # ... with 54 more rows, and 5 more variables: homeworld <chr>,
## #   species <chr>, films <list>, vehicles <list>, starships <list>
…
                       # followed by pattern it looks for

Since str_detect() returns a logical, we can negate it with ! to get the opposite (observations that don’t contain the string "grey" in hair_color):

starwars %>% 
  filter(!str_detect(hair_color, "grey"))

## # A tibble: 79 x 13
##    name  height  mass hair_color skin_color eye_color birth_year gender
##    <chr>  <int> <dbl> <chr>      <chr>      <chr>          <dbl> <chr> 
##  1 Luke~    172    77 blond      fair       blue            19   male  
##  2 Dart~    202   136 none       white      yellow          41.9 male  
##  3 Leia~    150    49 brown      light      brown           19   female
##  4 Beru~    165    75 brown      light      blue            47   female
##  5 Bigg~    183    84 black      light      brown           24   male  
##  6 Obi-~    182    77 auburn, w~ fair       blue-gray       57   male  
##  7 Anak~    188    84 blond      fair       blue            41.9 male  
##  8 Chew~    228   112 brown      unknown    blue           200   male  
##  9 Han ~    180    80 brown      fair       brown           29   male  
## 10 Wedg~    170    77 brown      fair       hazel           21   male  
## # ... with 69 more rows, and 5 more variables: homeworld <chr>,
## #   species <chr>, films <list>, vehicles <list>, starships <list>
…
Exercise 4.2b

Starting with the starwars data frame, filter for characters that don’t have blue in their eye color (hint: it could have more than one color) and print their name, eye_color, and species.

starwars %>% 
  filter(!str_detect(eye_color, "blue")) %>% 
  select(name, eye_color, species)

## # A tibble: 66 x 3
##    name                  eye_color species
##    <chr>                 <chr>     <chr>  
##  1 C-3PO                 yellow    Droid  
##  2 R2-D2                 red       Droid  
##  3 Darth Vader           yellow    Human  
##  4 Leia Organa           brown     Human  
##  5 R5-D4                 red       Droid  
##  6 Biggs Darklighter     brown     Human  
##  7 Han Solo              brown     Human  
##  8 Greedo                black     Rodian 
##  9 Jabba Desilijic Tiure orange    Hutt   
## 10 Wedge Antilles        hazel     Human  
## # ... with 56 more rows
…
4.3 Transforming data with mutate() and transmute()

The next verbs from dplyr we’ll discuss are mutate() and transmute(). mutate() is for adding columns to a dataframe. transmute() is for replacing columns in a dataframe. Let’s start with mutate()

4.3.1 mutate()

Recall from last time that we can add columns to a dataframe in base R using data$new_col <-. For example, we could add height in meters to our starwars data:

starwars$height_in_m = starwars$height/100

starwars 

## # A tibble: 87 x 14
##    name  height  mass hair_color skin_color eye_color birth_year gender
##    <chr>  <int> <dbl> <chr>      <chr>      <chr>          <dbl> <chr> 
##  1 Luke~    172    77 blond      fair       blue            19   male  
##  2 C-3PO    167    75 <NA>       gold       yellow         112   <NA>  
##  3 R2-D2     96    32 <NA>       white, bl~ red             33   <NA>  
##  4 Dart~    202   136 none       white      yellow          41.9 male  
##  5 Leia~    150    49 brown      light      brown           19   female
##  6 Owen~    178   120 brown, gr~ light      blue            52   male  
##  7 Beru~    165    75 brown      light      blue            47   female
##  8 R5-D4     97    32 <NA>       white, red red             NA   <NA>  
##  9 Bigg~    183    84 black      light      brown           24   male  
## 10 Obi-~    182    77 auburn, w~ fair       blue-gray       57   male  
## # ... with 77 more rows, and 6 more variables: homeworld <chr>,
## #   species <chr>, films <list>, vehicles <list>, starships <list>,
## #   height_in_m <dbl>

# cleaning it back up
starwars <- starwars %>% 
  select(-height_in_m)

In the tidyverse, we use mutate() instead. mutate() requires data as its first argument, followed by a set of expressions defining new columns, separated by a comma. For example, we could calculate height in meters and millimeters:

starwars %>% 
  mutate(height_in_mm = height*10, # height in millimeters
         height_in_m = height/100) # height in meters

## # A tibble: 87 x 15
##    name  height  mass hair_color skin_color eye_color birth_year gender
##    <chr>  <int> <dbl> <chr>      <chr>      <chr>          <dbl> <chr> 
##  1 Luke~    172    77 blond      fair       blue            19   male  
##  2 C-3PO    167    75 <NA>       gold       yellow         112   <NA>  
##  3 R2-D2     96    32 <NA>       white, bl~ red             33   <NA>  
##  4 Dart~    202   136 none       white      yellow          41.9 male  
##  5 Leia~    150    49 brown      light      brown           19   female
##  6 Owen~    178   120 brown, gr~ light      blue            52   male  
##  7 Beru~    165    75 brown      light      blue            47   female
##  8 R5-D4     97    32 <NA>       white, red red             NA   <NA>  
##  9 Bigg~    183    84 black      light      brown           24   male  
## 10 Obi-~    182    77 auburn, w~ fair       blue-gray       57   male  
## # ... with 77 more rows, and 7 more variables: homeworld <chr>,
## #   species <chr>, films <list>, vehicles <list>, starships <list>,
## #   height_in_mm <dbl>, height_in_m <dbl>
…
