R Bootcamp Day 3: Tidying & Visualizing Data (with answers) | Cory K. Costello
…
You can separate() one column into multiple columns using the tidyr function separate(). It takes data as its first argument, then the column you want to separate (col =), then a vector of quoted names for the new columns (into =), and then what character to split values by (sep =).

Let’s use the starwars data and split each character’s name into first_name and last_name. Let’s start without setting the sep = argument to see what it does by default:

starwars %>% 
  separate(col = name, into = c("first_name", "last_name"))

## Warning: Expected 2 pieces. Additional pieces discarded in 10 rows [7, 10,
## 16, 18, 29, 31, 34, 49, 60, 65].

## Warning: Expected 2 pieces. Missing pieces filled with `NA` in 18 rows [13,
## 15, 19, 20, 23, 25, 26, 38, 39, 46, 58, 63, 64, 77, 78, 82, 83, 85].

## # A tibble: 87 x 14
##    first_name last_name height  mass hair_color skin_color eye_color
##    <chr>      <chr>      <int> <dbl> <chr>      <chr>      <chr>    
##  1 Luke       Skywalker    172    77 blond      fair       blue     
##  2 C          3PO          167    75 <NA>       gold       yellow   
##  3 R2         D2            96    32 <NA>       white, bl~ red      
##  4 Darth      Vader        202   136 none       white      yellow   
##  5 Leia       Organa       150    49 brown      light      brown    
##  6 Owen       Lars         178   120 brown, gr~ light      blue     
##  7 Beru       Whitesun     165    75 brown      light      blue     
##  8 R5         D4            97    32 <NA>       white, red red      
##  9 Biggs      Darkligh~    183    84 black      light      brown    
## 10 Obi        Wan          182    77 auburn, w~ fair       blue-gray
## # ... with 77 more rows, and 7 more variables: birth_year <dbl>,
## #   gender <chr>, homeworld <chr>, species <chr>, films <list>,
## #   vehicles <list>, starships <list>
You might notice that it separated based on different characters, such as white space (luke & skywalker were separated) and by hyphens (C and 3PO were separated). By default, it separate looks for common separators (space, hyphen, underscore, periods, etc.) and uses all of them. This can be useful, but it has undesirable effects as you can see above. Let’s fix this by telling separate to use white space to separate first from last names using the sep = argument:

starwars_sep_names <- starwars %>% 
  separate(name, c("first_name", "last_name"), sep = " ")

## Warning: Expected 2 pieces. Additional pieces discarded in 7 rows [7, 16,
## 18, 29, 34, 60, 65].

## Warning: Expected 2 pieces. Missing pieces filled with `NA` in 24 rows
## [2, 3, 8, 13, 15, 19, 20, 22, 23, 25, 26, 38, 39, 46, 49, 58, 63, 64, 73,
## 77, ...].

starwars_sep_names

## # A tibble: 87 x 14
##    first_name last_name height  mass hair_color skin_color eye_color
##    <chr>      <chr>      <int> <dbl> <chr>      <chr>      <chr>    
##  1 Luke       Skywalker    172    77 blond      fair       blue     
##  2 C-3PO      <NA>         167    75 <NA>       gold       yellow   
##  3 R2-D2      <NA>          96    32 <NA>       white, bl~ red      
##  4 Darth      Vader        202   136 none       white      yellow   
##  5 Leia       Organa       150    49 brown      light      brown    
##  6 Owen       Lars         178   120 brown, gr~ light      blue     
##  7 Beru       Whitesun     165    75 brown      light      blue     
##  8 R5-D4      <NA>          97    32 <NA>       white, red red      
##  9 Biggs      Darkligh~    183    84 black      light      brown    
## 10 Obi-Wan    Kenobi       182    77 auburn, w~ fair       blue-gray
## # ... with 77 more rows, and 7 more variables: birth_year <dbl>,
## #   gender <chr>, homeworld <chr>, species <chr>, films <list>,
## #   vehicles <list>, starships <list>

1.3.2 unite()

unite() is the complement of separate() and used to join the contents or values of different columns into one new column. It requires data as its first argument, then the unquoted name of the new column name, followed by unquoted names of columns you wish to unite. Let’s try to put the first and last names of starwars characters back together with unite():

starwars_sep_names %>% 
  unite(col = name, first_name, last_name)

## # A tibble: 87 x 13
##    name  height  mass hair_color skin_color eye_color birth_year gender
##    <chr>  <int> <dbl> <chr>      <chr>      <chr>          <dbl> <chr> 
##  1 Luke~    172    77 blond      fair       blue            19   male  
##  2 C-3P~    167    75 <NA>       gold       yellow         112   <NA>  
##  3 R2-D~     96    32 <NA>       white, bl~ red             33   <NA>  
##  4 Dart~    202   136 none       white      yellow          41.9 male  
##  5 Leia~    150    49 brown      light      brown           19   female
##  6 Owen~    178   120 brown, gr~ light      blue            52   male  
##  7 Beru~    165    75 brown      light      blue            47   female
##  8 R5-D~     97    32 <NA>       white, red red             NA   <NA>  
##  9 Bigg~    183    84 black      light      brown           24   male  
## 10 Obi-~    182    77 auburn, w~ fair       blue-gray       57   male  
## # ... with 77 more rows, and 5 more variables: homeworld <chr>,
## #   species <chr>, films <list>, vehicles <list>, starships <list>

Okay, so a couple of things went wrong:

It put an "_" between first and last names; we can easily change this to whitespace using sep = " ".

It merged in the NAs for characters without last names. This is more challenging and requires tools from other libraries.

Let’s go ahead and fix that! We’ll use another stringr function to remove the NAs form the names called str_remove_all(), which strips a pattern from a string

starwars_sep_names %>% 
  unite(col = name, first_name, last_name, sep = " ") %>% 
  mutate(name = str_remove_all(string = name, pattern = "NA")) # overwrite name with 

## # A tibble: 87 x 13
##    name  height  mass hair_color skin_color eye_color birth_year gender
##    <chr>  <int> <dbl> <chr>      <chr>      <chr>          <dbl> <chr> 
##  1 Luke~    172    77 blond      fair       blue            19   male  
##  2 "C-3~    167    75 <NA>       gold       yellow         112   <NA>  
##  3 "R2-~     96    32 <NA>       white, bl~ red             33   <NA>  
##  4 Dart~    202   136 none       white      yellow          41.9 male  
##  5 Leia~    150    49 brown      light      brown           19   female
##  6 Owen~    178   120 brown, gr~ light      blue            52   male  
##  7 Beru~    165    75 brown      light      blue            47   female
##  8 "R5-~     97    32 <NA>       white, red red             NA   <NA>  
##  9 Bigg~    183    84 black      light      brown           24   male  
## 10 Obi-~    182    77 auburn, w~ fair       blue-gray       57   male  
## # ... with 77 more rows, and 5 more variables: homeworld <chr>,
## #   species <chr>, films <list>, vehicles <list>, starships <list>
…
